<?xml version="1.0" encoding="UTF-8"?>
<svg width="13px" height="25px" viewBox="0 0 13 25" version="1.1" xmlns="http://www.w3.org/2000/svg" xmlns:xlink="http://www.w3.org/1999/xlink">
    <!-- Generator: Sketch 47.1 (45422) - http://www.bohemiancoding.com/sketch -->
    <title>Facebook</title>
    <desc>Created with Sketch.</desc>
    <defs></defs>
    <g id="Page-1" stroke="none" stroke-width="1" fill="none" fill-rule="evenodd">
        <g id="Blog-Copy-5" transform="translate(-618.000000, -1669.000000)" fill-rule="nonzero" fill="#FFFFFF">
            <g id="Facebook" transform="translate(618.000000, 1669.000000)">
                <path d="M8.42701512,24.9998793 L8.42701512,13.5961735 L12.2548096,13.5961735 L12.8278863,9.15196249 L8.42701512,9.15196249 L8.42701512,6.31446659 C8.42701512,5.02779065 8.78435804,4.15085183 10.6296237,4.15085183 L12.9830166,4.14976531 L12.9830166,0.174929014 C12.5758146,0.120965405 11.1789177,0 9.55373182,0 C6.16066427,0 3.83769388,2.07101949 3.83769388,5.87454849 L3.83769388,9.15208321 L0,9.15208321 L0,13.5962943 L3.83757316,13.5962943 L3.83757316,25 L8.42701512,24.9998793 Z" id="Shape"></path>
            </g>
        </g>
    </g>
</svg>